{
  "type": "FeatureCollection",
  "features":[{
    '_id': ObjectId('661f488ee889b31d41488b68'),
    'url': 'https://bucket.dataiotapp.com/fd2022e8-dcbe-45d9-993d-098d79ff2c6f/T/DJI_20231110112135_0007_T.JPG',
    'colorbar': False,
    'colormap': 'inferno',
    'date': '11:21:35',
    'device': 'DJI-M3T',
    'device_id': '1581F5FJD231300C691B',
    'emissivity': 0.95,
    'irr': 855,
    'latitude': 13.489739555555555,
    'longitude': 100.85617252777777,
    'lower': 0.0,
    'object_distance': 22.0,
    'project': 'BBO',
    'reflected_apparent_temperature': 37.0,
    'relative_humidity': 55.0,
    'roi': [{
      'x': 328.2713204379596,
      'y': 312.6306566679774,
      'xmax': 361.0522821131989,
      'ymax': 367.58346042497783,
      'id': 1,
      'type': 'rectangle',
      'hotspot_type': 'single',
      'tag': 'STRING# 1-23-9-19',
      'pv_brand': 'None',
      'cell_size': 'None',
      'normal_temp': 85,
      'priority': 3,
      'maxTemperature': 47.913719177246094,
      'minTemperature': 34.22081756591797,
      'maxIndex': [335, 363],
      'minIndex': [360, 367],
      'location': '100.85617381780506,13.489729627031672'
    }],
    'save': False,
    'time': '2023:11:10',
    'upper': 0.0,
    'var': 'https://bucket.dataiotapp.com/fd2022e8-dcbe-45d9-993d-098d79ff2c6f/V/DJI_20231110112135_0007_V.JPG',
    'windspeed': 1.0
  }, {
    '_id': ObjectId('661f49f6e889b31d414fd2a3'),
    'url': 'https://bucket.dataiotapp.com/fd2022e8-dcbe-45d9-993d-098d79ff2c6f/T/DJI_20231110112137_0009_T.JPG',
    'colorbar': False,
    'colormap': 'inferno',
    'date': '11:21:37',
    'device': 'DJI-M3T',
    'device_id': '1581F5FJD231300C691B',
    'emissivity': 0.95,
    'irr': 855,
    'latitude': 13.489739055555555,
    'longitude': 100.85609413888888,
    'lower': 0.0,
    'object_distance': 22.0,
    'project': 'BBO',
    'reflected_apparent_temperature': 37.0,
    'relative_humidity': 55.0,
    'roi': [{
      'x': 208.22836219060449,
      'y': 39.25200268357176,
      'xmax': 238.23910175244328,
      'ymax': 97.89911257549662,
      'id': 1,
      'type': 'rectangle',
      'hotspot_type': 'single',
      'tag': 'STRING# 1-23-7-17',
      'pv_brand': 'None',
      'cell_size': 'None',
      'normal_temp': 85,
      'priority': 2,
      'maxTemperature': 90.86650848388672,
      'minTemperature': 34.72863006591797,
      'maxIndex': [214, 48],
      'minIndex': [208, 39],
      'location': '100.85605802467329,13.48974972145911'
    }],
    'save': False,
    'time': '2023:11:10',
    'upper': 0.0,
    'var': 'https://bucket.dataiotapp.com/fd2022e8-dcbe-45d9-993d-098d79ff2c6f/V/DJI_20231110112137_0009_V.JPG',
    'windspeed': 1.0
  }, {
    '_id': ObjectId('661f538de889b31d417d8378'),
    'url': 'https://bucket.dataiotapp.com/fd2022e8-dcbe-45d9-993d-098d79ff2c6f/T/DJI_20231110112151_0023_T.JPG',
    'colorbar': False,
    'colormap': 'inferno',
    'date': '11:21:51',
    'device': 'DJI-M3T',
    'device_id': '1581F5FJD231300C691B',
    'emissivity': 0.95,
    'irr': 855,
    'latitude': 13.489740166666666,
    'longitude': 100.85555127777778,
    'lower': 0.0,
    'object_distance': 22.0,
    'project': 'BBO',
    'reflected_apparent_temperature': 37.0,
    'relative_humidity': 55.0,
    'roi': [{
      'x': 380.7164722545364,
      'y': 302.22183115671817,
      'xmax': 411.2076691425527,
      'ymax': 357.67149485634013,
      'id': 1,
      'type': 'rectangle',
      'hotspot_type': 'single',
      'tag': 'STRING# 1-24-4-4',
      'pv_brand': 'None',
      'cell_size': 'None',
      'normal_temp': 85,
      'priority': 3,
      'maxTemperature': 57.904808044433594,
      'minTemperature': 36.25035858154297,
      'maxIndex': [400, 344],
      'minIndex': [408, 357],
      'location': '100.85555518322079,13.489733219501797'
    }],
    'save': False,
    'time': '2023:11:10',
    'upper': 0.0,
    'var': 'https://bucket.dataiotapp.com/fd2022e8-dcbe-45d9-993d-098d79ff2c6f/V/DJI_20231110112151_0023_V.JPG',
    'windspeed': 1.0
  }, {
    '_id': ObjectId('661f547ee889b31d4181f820'),
    'url': 'https://bucket.dataiotapp.com/fd2022e8-dcbe-45d9-993d-098d79ff2c6f/T/DJI_20231110112222_0054_T.JPG',
    'colorbar': False,
    'colormap': 'inferno',
    'date': '11:22:22',
    'device': 'DJI-M3T',
    'device_id': '1581F5FJD231300C691B',
    'emissivity': 0.95,
    'irr': 855,
    'latitude': 13.48969236111111,
    'longitude': 100.85620619444444,
    'lower': 0.0,
    'object_distance': 22.0,
    'project': 'BBO',
    'reflected_apparent_temperature': 37.0,
    'relative_humidity': 55.0,
    'roi': [{
      'x': 292.63079235582273,
      'y': 364.8672527410239,
      'xmax': 327.78036654617483,
      'ymax': 426.6661145741904,
      'id': 1,
      'type': 'rectangle',
      'hotspot_type': 'shading',
      'tag': 'STRING# 1-23-10-20',
      'pv_brand': 'None',
      'cell_size': 'None',
      'normal_temp': 85,
      'priority': 3,
      'maxTemperature': 43.91411590576172,
      'minTemperature': 29.02593421936035,
      'maxIndex': [317, 412],
      'minIndex': [326, 380],
      'location': '100.85618926823872,13.48967174884913'
    }, {
      'x': 257.0577293198038,
      'y': 365.71381249216324,
      'xmax': 293.4777700471565,
      'ymax': 426.6661145741904,
      'id': 2,
      'type': 'rectangle',
      'hotspot_type': 'shading',
      'tag': 'STRING# 1-23-10-19',
      'pv_brand': 'None',
      'cell_size': 'None',
      'normal_temp': 85,
      'priority': 3,
      'maxTemperature': 46.417198181152344,
      'minTemperature': 31.270166397094727,
      'maxIndex': [281, 422],
      'minIndex': [293, 426],
      'location': '100.85617384291756,13.489674773509254'
    }, {
      'x': 290.5133481274883,
      'y': 300.95199153000925,
      'xmax': 325.6629223178404,
      'ymax': 363.59741311431503,
      'id': 3,
      'type': 'rectangle',
      'hotspot_type': 'shading',
      'tag': 'STRING# 1-23-10-10',
      'pv_brand': 'None',
      'cell_size': 'None',
      'normal_temp': 85,
      'priority': 3,
      'maxTemperature': 41.402427673339844,
      'minTemperature': 29.02593421936035,
      'maxIndex': [308, 360],
      'minIndex': [323, 316],
      'location': '100.85618650744938,13.489693923745909'
    }],
    'save': False,
    'time': '2023:11:10',
    'upper': 0.0,
    'var': 'https://bucket.dataiotapp.com/fd2022e8-dcbe-45d9-993d-098d79ff2c6f/V/DJI_20231110112222_0054_V.JPG',
    'windspeed': 1.0
  }, {
    '_id': ObjectId('661f54aae889b31d4182d53e'),
    'url': 'https://bucket.dataiotapp.com/fd2022e8-dcbe-45d9-993d-098d79ff2c6f/T/DJI_20231110112233_0065_T.JPG',
    'colorbar': False,
    'colormap': 'inferno',
    'date': '11:22:33',
    'device': 'DJI-M3T',
    'device_id': '1581F5FJD231300C691B',
    'emissivity': 0.95,
    'irr': 855,
    'latitude': 13.48964486111111,
    'longitude': 100.85610344444444,
    'lower': 0.0,
    'object_distance': 22.0,
    'project': 'BBO',
    'reflected_apparent_temperature': 37.0,
    'relative_humidity': 55.0,
    'roi': [{
      'x': 210.0504674507787,
      'y': 350.0524570960868,
      'xmax': 244.77655279546389,
      'ymax': 411.4280390536836,
      'id': 1,
      'type': 'rectangle',
      'hotspot_type': 'multiple',
      'tag': 'STRING# 1-25-4-20',
      'pv_brand': 'None',
      'cell_size': 'None',
      'normal_temp': 85,
      'priority': 3,
      'maxTemperature': 48.90996551513672,
      'minTemperature': 29.8426456451416,
      'maxIndex': [215, 408],
      'minIndex': [243, 365],
      'location': '100.8560884866763,13.489631891366624'
    }, {
      'x': 210.88784811912282,
      'y': 468.8607364593507,
      'xmax': 183.09323302913924,
      'ymax': 418.60256640795467,
      'id': 2,
      'type': 'rectangle',
      'hotspot_type': 'single',
      'tag': 'STRING# 1-25-8-19',
      'pv_brand': 'None',
      'cell_size': 'None',
      'normal_temp': 85,
      'priority': 3,
      'maxTemperature': 47.913719177246094,
      'minTemperature': 39.890647888183594,
      'maxIndex': [199, 466],
      'minIndex': [210, 427],
      'location': '100.85607586667334,13.489613236532595'
    }],
    'save': False,
    'time': '2023:11:10',
    'upper': 0.0,
    'var': 'https://bucket.dataiotapp.com/fd2022e8-dcbe-45d9-993d-098d79ff2c6f/V/DJI_20231110112233_0065_V.JPG',
    'windspeed': 1.0
  }, {
    '_id': ObjectId('661f5576e889b31d41869818'),
    'url': 'https://bucket.dataiotapp.com/fd2022e8-dcbe-45d9-993d-098d79ff2c6f/T/DJI_20231110112242_0074_T.JPG',
    'colorbar': False,
    'colormap': 'inferno',
    'date': '11:22:42',
    'device': 'DJI-M3T',
    'device_id': '1581F5FJD231300C691B',
    'emissivity': 0.95,
    'irr': 855,
    'latitude': 13.489644916666666,
    'longitude': 100.8557511111111,
    'lower': 0.0,
    'object_distance': 22.0,
    'project': 'BBO',
    'reflected_apparent_temperature': 37.0,
    'relative_humidity': 55.0,
    'roi': [{
      'x': 343.44945383584985,
      'y': 339.4704602068459,
      'xmax': 376.05809495220063,
      'ymax': 394.4968440308983,
      'id': 1,
      'type': 'rectangle',
      'hotspot_type': 'single',
      'tag': 'STRING# 1-25-3-4',
      'pv_brand': 'None',
      'cell_size': 'None',
      'normal_temp': 85,
      'priority': 3,
      'maxTemperature': 51.51268768310547,
      'minTemperature': 38.881126403808594,
      'maxIndex': [354, 347],
      'minIndex': [376, 354],
      'location': '100.85574495565098,13.489632880427974'
    }],
    'save': False,
    'time': '2023:11:10',
    'upper': 0.0,
    'var': 'https://bucket.dataiotapp.com/fd2022e8-dcbe-45d9-993d-098d79ff2c6f/V/DJI_20231110112242_0074_V.JPG',
    'windspeed': 1.0
  }, {
    '_id': ObjectId('661f55ebe889b31d4188c008'),
    'url': 'https://bucket.dataiotapp.com/fd2022e8-dcbe-45d9-993d-098d79ff2c6f/T/DJI_20231110112251_0083_T.JPG',
    'colorbar': False,
    'colormap': 'inferno',
    'date': '11:22:51',
    'device': 'DJI-M3T',
    'device_id': '1581F5FJD231300C691B',
    'emissivity': 0.95,
    'irr': 855,
    'latitude': 13.489644694444443,
    'longitude': 100.85539886111111,
    'lower': 0.0,
    'object_distance': 22.0,
    'project': 'BBO',
    'reflected_apparent_temperature': 37.0,
    'relative_humidity': 55.0,
    'roi': [{
      'x': 380.29298340886953,
      'y': 320.84614568178205,
      'xmax': 412.47813567955336,
      'ymax': 377.1423691325433,
      'id': 1,
      'type': 'rectangle',
      'hotspot_type': 'single',
      'tag': 'STRING# 1-25-1-8',
      'pv_brand': 'None',
      'cell_size': 'None',
      'normal_temp': 85,
      'priority': 2,
      'maxTemperature': 99.4905014038086,
      'minTemperature': 37.971519470214844,
      'maxIndex': [405, 363],
      'minIndex': [411, 320],
      'location': '100.85540046892648,13.48963376199201'
    }],
    'save': False,
    'time': '2023:11:10',
    'upper': 0.0,
    'var': 'https://bucket.dataiotapp.com/fd2022e8-dcbe-45d9-993d-098d79ff2c6f/V/DJI_20231110112251_0083_V.JPG',
    'windspeed': 1.0
  }, {
    '_id': ObjectId('661f57d3e889b31d4191fe28'),
    'url': 'https://bucket.dataiotapp.com/fd2022e8-dcbe-45d9-993d-098d79ff2c6f/T/DJI_20231110112328_0120_T.JPG',
    'colorbar': False,
    'colormap': 'inferno',
    'date': '11:23:28',
    'device': 'DJI-M3T',
    'device_id': '1581F5FJD231300C691B',
    'emissivity': 0.95,
    'irr': 855,
    'latitude': 13.489550027777778,
    'longitude': 100.85608391666666,
    'lower': 0.0,
    'object_distance': 22.0,
    'project': 'BBO',
    'reflected_apparent_temperature': 37.0,
    'relative_humidity': 55.0,
    'roi': [{
      'x': 291.78381466448894,
      'y': 213.3330572870952,
      'xmax': 323.54547808950593,
      'ymax': 278.09487824924906,
      'id': 1,
      'type': 'rectangle',
      'hotspot_type': 'multiple',
      'tag': 'STRING# 1-26-2-18',
      'pv_brand': 'None',
      'cell_size': 'None',
      'normal_temp': 85,
      'priority': 3,
      'maxTemperature': 65.77397918701172,
      'minTemperature': 35.946250915527344,
      'maxIndex': [292, 275],
      'minIndex': [323, 213],
      'location': '100.85606650588215,13.48957189830941'
    }, {
      'x': 325.23943347217346,
      'y': 212.48649753595595,
      'xmax': 359.9655188168587,
      'ymax': 278.09487824924906,
      'id': 2,
      'type': 'rectangle',
      'hotspot_type': 'multiple',
      'tag': 'STRING# 1-26-2-19',
      'pv_brand': 'None',
      'cell_size': 'None',
      'normal_temp': 85,
      'priority': 3,
      'maxTemperature': 73.07857513427734,
      'minTemperature': 32.39049530029297,
      'maxIndex': [327, 264],
      'minIndex': [325, 212],
      'location': '100.85607671084927,13.489571842273584'
    }, {
      'x': 362.08296304519314,
      'y': 212.48649753595595,
      'xmax': 393.8446264702101,
      'ymax': 277.2483184981098,
      'id': 3,
      'type': 'rectangle',
      'hotspot_type': 'multiple',
      'tag': 'STRING# 1-26-2-20',
      'pv_brand': 'None',
      'cell_size': 'None',
      'normal_temp': 85,
      'priority': 3,
      'maxTemperature': 56.214988708496094,
      'minTemperature': 29.944360733032227,
      'maxIndex': [377, 274],
      'minIndex': [393, 277],
      'location': '100.85608712667366,13.489572793609193'
    }, {
      'x': 257.4446686019162,
      'y': 281.4459796528718,
      'xmax': 288.67873326448426,
      'ymax': 342.7582838558146,
      'id': 4,
      'type': 'rectangle',
      'hotspot_type': 'single',
      'tag': 'STRING# 1-26-4-17',
      'pv_brand': 'None',
      'cell_size': 'None',
      'normal_temp': 85,
      'priority': 2,
      'maxTemperature': 93.34514617919922,
      'minTemperature': 39.789817810058594,
      'maxIndex': [259, 325],
      'minIndex': [288, 297],
      'location': '100.85605758832301,13.489555296419983'
    }, {
      'x': 324.97778138584715,
      'y': 280.6022323473267,
      'xmax': 358.46294980787957,
      'ymax': 341.91453655026953,
      'id': 5,
      'type': 'rectangle',
      'hotspot_type': 'single',
      'tag': 'STRING# 1-26-4-19',
      'pv_brand': 'None',
      'cell_size': 'None',
      'normal_temp': 85,
      'priority': 2,
      'maxTemperature': 86.30233001708984,
      'minTemperature': 35.23613739013672,
      'maxIndex': [332, 340],
      'minIndex': [358, 295],
      'location': '100.8560753697448,13.489553619165529'
    }, {
      'x': 360.995441537277,
      'y': 280.8834814491751,
      'xmax': 393.3550580795772,
      'ymax': 341.0707892447244,
      'id': 6,
      'type': 'rectangle',
      'hotspot_type': 'multiple',
      'tag': 'STRING# 1-26-4-20',
      'pv_brand': 'None',
      'cell_size': 'None',
      'normal_temp': 85,
      'priority': 3,
      'maxTemperature': 46.71660614013672,
      'minTemperature': 27.90215492248535,
      'maxIndex': [365, 308],
      'minIndex': [393, 341],
      'location': '100.85608843503637,13.489553633174484'
    }],
    'save': False,
    'time': '2023:11:10',
    'upper': 0.0,
    'var': 'https://bucket.dataiotapp.com/fd2022e8-dcbe-45d9-993d-098d79ff2c6f/V/DJI_20231110112327_0120_V.JPG',
    'windspeed': 1.0
  }, {
    '_id': ObjectId('661f5834e889b31d4193d29f'),
    'url': 'https://bucket.dataiotapp.com/fd2022e8-dcbe-45d9-993d-098d79ff2c6f/T/DJI_20231110112334_0126_T.JPG',
    'colorbar': False,
    'colormap': 'inferno',
    'date': '11:23:34',
    'device': 'DJI-M3T',
    'device_id': '1581F5FJD231300C691B',
    'emissivity': 0.95,
    'irr': 855,
    'latitude': 13.48954911111111,
    'longitude': 100.8558475,
    'lower': 0.0,
    'object_distance': 22.0,
    'project': 'BBO',
    'reflected_apparent_temperature': 37.0,
    'relative_humidity': 55.0,
    'roi': [{
      'x': 222.29353152987105,
      'y': 285.7520096482066,
      'xmax': 257.4812181654707,
      'ymax': 345.81965834039045,
      'id': 1,
      'type': 'rectangle',
      'hotspot_type': 'multiple',
      'tag': 'STRING# 1-26-3-12',
      'pv_brand': 'None',
      'cell_size': 'None',
      'normal_temp': 85,
      'priority': 3,
      'maxTemperature': 78.2790756225586,
      'minTemperature': 34.93163299560547,
      'maxIndex': [231, 342],
      'minIndex': [257, 345],
      'location': '100.85582067267117,13.489556312989672'
    }],
    'save': False,
    'time': '2023:11:10',
    'upper': 0.0,
    'var': 'https://bucket.dataiotapp.com/fd2022e8-dcbe-45d9-993d-098d79ff2c6f/V/DJI_20231110112333_0126_V.JPG',
    'windspeed': 1.0
  }, {
    '_id': ObjectId('661f58d4e889b31d4196d161'),
    'url': 'https://bucket.dataiotapp.com/fd2022e8-dcbe-45d9-993d-098d79ff2c6f/T/DJI_20231110112608_0004_T.JPG',
    'colorbar': False,
    'colormap': 'inferno',
    'date': '11:26:08',
    'device': 'DJI-M3T',
    'device_id': '1581F5FJD231300C691B',
    'emissivity': 0.95,
    'irr': 855,
    'latitude': 13.489503388888888,
    'longitude': 100.85572244444444,
    'lower': 0.0,
    'object_distance': 22.0,
    'project': 'BBO',
    'reflected_apparent_temperature': 37.0,
    'relative_humidity': 55.0,
    'roi': [{
      'x': 392.57415993320944,
      'y': 325.50222431304803,
      'xmax': 424.7593122038933,
      'ymax': 387.72436602178414,
      'id': 1,
      'type': 'rectangle',
      'hotspot_type': 'single',
      'tag': 'STRING# 1-26-7-2',
      'pv_brand': 'None',
      'cell_size': 'None',
      'normal_temp': 85,
      'priority': 2,
      'maxTemperature': 96.3407211303711,
      'minTemperature': 39.083213806152344,
      'maxIndex': [416, 355],
      'minIndex': [392, 325],
      'location': '100.85572675326654,13.489497396873668'
    }, {
      'x': 431.53513373456354,
      'y': 259.04728384861556,
      'xmax': 463.2967971595805,
      'ymax': 322.9625450596302,
      'id': 2,
      'type': 'rectangle',
      'hotspot_type': 'single',
      'tag': 'STRING# 1-26-5-3',
      'pv_brand': 'None',
      'cell_size': 'None',
      'normal_temp': 85,
      'priority': 3,
      'maxTemperature': 56.108360290527344,
      'minTemperature': 33.306114196777344,
      'maxIndex': [436, 311],
      'minIndex': [463, 259],
      'location': '100.8557356380839,13.489515074910056'
    }],
    'save': False,
    'time': '2023:11:10',
    'upper': 0.0,
    'var': 'https://bucket.dataiotapp.com/fd2022e8-dcbe-45d9-993d-098d79ff2c6f/V/DJI_20231110112608_0004_V.JPG',
    'windspeed': 1.0
  }, {
    '_id': ObjectId('661f58e0e889b31d41970d30'),
    'url': 'https://bucket.dataiotapp.com/fd2022e8-dcbe-45d9-993d-098d79ff2c6f/T/DJI_20231110112612_0008_T.JPG',
    'colorbar': False,
    'colormap': 'inferno',
    'date': '11:26:12',
    'device': 'DJI-M3T',
    'device_id': '1581F5FJD231300C691B',
    'emissivity': 0.95,
    'irr': 855,
    'latitude': 13.489502416666665,
    'longitude': 100.85587966666667,
    'lower': 0.0,
    'object_distance': 22.0,
    'project': 'BBO',
    'reflected_apparent_temperature': 37.0,
    'relative_humidity': 55.0,
    'roi': [{
      'x': 228.68397666012197,
      'y': 258.62400397304594,
      'xmax': 263.41006200480723,
      'ymax': 320.84614568178205,
      'id': 1,
      'type': 'rectangle',
      'hotspot_type': 'single',
      'tag': 'STRING# 1-26-5-14',
      'pv_brand': 'None',
      'cell_size': 'None',
      'normal_temp': 85,
      'priority': 3,
      'maxTemperature': 52.34282684326172,
      'minTemperature': 30.250757217407227,
      'maxIndex': [237, 262],
      'minIndex': [261, 258],
      'location': '100.85583832030996,13.489514874454313'
    }],
    'save': False,
    'time': '2023:11:10',
    'upper': 0.0,
    'var': 'https://bucket.dataiotapp.com/fd2022e8-dcbe-45d9-993d-098d79ff2c6f/V/DJI_20231110112612_0008_V.JPG',
    'windspeed': 1.0
  }, {
    '_id': ObjectId('661f5a60e889b31d419e343e'),
    'url': 2024 - 05 - 23 T08: 19: 35.613652724 Z 'https://bucket.dataiotapp.com/fd2022e8-dcbe-45d9-993d-098d79ff2c6f/T/DJI_20231110112617_0013_T.JPG',
    'colorbar': False,
    'colormap': 'inferno',
    'date': '11:26:17',
    'device': 'DJI-M3T',
    'device_id': '1581F5FJD231300C691B',
    'emissivity': 0.95,
    'irr': 855,
    'latitude': 13.489501944444443,
    'longitude': 100.85607580555555,
    'lower': 0.0,
    'object_distance': 22.0,
    'project': 'BBO',
    'reflected_apparent_temperature': 37.0,
    'relative_humidity': 55.0,
    'roi': [{
      'x': 379.44600571753574,
      'y': 265.81976185772976,
      'xmax': 412.05464683388647,
      'ymax': 331.4281425710229,
      'id': 1,
      'type': 'rectangle',
      'hotspot_type': 'shading',
      'tag': 'STRING# 1-26-6-19',
      'pv_brand': 'None',
      'cell_size': 'None',
      'normal_temp': 85,
      'priority': 3,
      'maxTemperature': 58.116111755371094,
      'minTemperature': 29.331933975219727,
      'maxIndex': [385, 329],
      'minIndex': [411, 265],
      'location': '100.85607671184883,13.489513727254879'
    }, {
      'x': 414.21959194774,
      'y': 266.9118972516074,
      'xmax': 448.781614391288,
      'ymax': 332.6721959652663,
      'id': 2,
      'type': 'rectangle',
      'hotspot_type': 'shading',
      'tag': 'STRING# 1-26-6-19',
      'pv_brand': 'None',
      'cell_size': 'None',
      'normal_temp': 85,
      'priority': 3,
      'maxTemperature': 47.015830993652344,
      'minTemperature': 28.719873428344727,
      'maxIndex': [437, 330],
      'minIndex': [448, 266],
      'location': '100.85608611267715,13.489512588708386'
    }, {
      'x': 342.1324239901481,
      'y': 332.84169390031116,
      'xmax': 374.54864421812545,
      'ymax': 395.98059359819604,
      'id': 3,
      'type': 'rectangle',
      'hotspot_type': 'shading',
      'tag': 'STRING# 1-26-8-18',
      'pv_brand': 'None',
      'cell_size': 'None',
      'normal_temp': 85,
      'priority': 3,
      'maxTemperature': 51.202293395996094,
      'minTemperature': 33.10277557373047,
      'maxIndex': [358, 367],
      'minIndex': [374, 350],
      'location': '100.8560681976688,13.489496231334902'
    }, {
      'x': 377.04287225891653,
      'y': 334.62903361513565,
      'xmax': 409.20129352465347,
      'ymax': 396.82696305825397,
      'id': 4,
      'type': 'rectangle',
      'hotspot_type': 'shading',
      'tag': 'STRING# 1-26-8-19',
      'pv_brand': 'None',
      'cell_size': 'None',
      'normal_temp': 85,
      'priority': 3,
      'maxTemperature': 62.07964324951172,
      'minTemperature': 32.69554901123047,
      'maxIndex': [384, 353],
      'minIndex': [409, 350],
      'location': '100.85607536812502,13.489495580554916'
    }, {
      'x': 412.12478636699325,
      'y': 335.8813409193595,
      'xmax': 443.8655657981102,
      'ymax': 396.82696305825397,
      'id': 5,
      'type': 'rectangle',
      'hotspot_type': 'shading',
      'tag': 'STRING# 1-26-8-20',
      'pv_brand': 'None',
      'cell_size': 'None',
      'normal_temp': 85,
      'priority': 3,
      'maxTemperature': 50.00304412841797,
      'minTemperature': 30.250757217407227,
      'maxIndex': [433, 394],
      'minIndex': [443, 396],
      'location': '100.85608507148761,13.48949438597247'
    }, {
      'x': 343.9768130263106,
      'y': 264.04958423744785,
      'xmax': 377.48730406588567,
      'ymax': 330.61881724537403,
      'id': 6,
      'type': 'rectangle',
      'hotspot_type': 'multiple',
      'tag': 'STRING# 1-26-6-18',
      'pv_brand': 'None',
      'cell_size': 'None',
      'normal_temp': 85,
      'priority': 3,
      'maxTemperature': 69.1820297241211,
      'minTemperature': 29.5361270904541,
      'maxIndex': [372, 311],
      'minIndex': [377, 264],
      'location': '100.85606655664935,13.489513416510654'
    }, {
      'x': 306.5438303780485,
      'y': 264.22370640748073,
      'xmax': 341.17120739682696,
      'ymax': 328.670453401284,
      'id': 7,
      'type': 'rectangle',
      'hotspot_type': 'single',
      'tag': 'STRING# 1-26-6-17',
      'pv_brand': 'None',
      'cell_size': 'None',
      'normal_temp': 85,
      'priority': 3,
      'maxTemperature': 54.32427215576172,
      'minTemperature': 32.594017028808594,
      'maxIndex': [331, 318],
      'minIndex': [341, 264],
      'location': '100.85605768197718,13.489512750160085'
    }, {
      'x': 234.06983734066196,
      'y': 262.1934878027071,
      'xmax': 268.0426621323743,
      'ymax': 328.3492625440784,
      'id': 8,
      'type': 'rectangle',
      'hotspot_type': 'single',
      'tag': 'STRING# 1-26-6-15',
      'pv_brand': 'None',
      'cell_size': 'None',
      'normal_temp': 85,
      'priority': 3,
      'maxTemperature': 80.78282928466797,
      'minTemperature': 32.39049530029297,
      'maxIndex': [252, 325],
      'minIndex': [268, 262],
      'location': '100.85603926831595,13.489513436887348'
    }, {
      'x': 305.8227862541922,
      'y': 332.44740788203944,
      'xmax': 339.50274186666553,
      'ymax': 395.6759359534385,
      'id': 9,
      'type': 'rectangle',
      'hotspot_type': 'single',
      'tag': 'STRING# 1-26-8-16',
      'pv_brand': 'None',
      'cell_size': 'None',
      'normal_temp': 85,
      'priority': 3,
      'maxTemperature': 49.30767059326172,
      'minTemperature': 35.844810485839844,
      'maxIndex': [308, 377],
      'minIndex': [339, 332],
      'location': '100.85604864949914,13.489496260626385'
    }],
    'save': False,
    'time': '2023:11:10',
    'upper': 0.0,
    'var': 'https://bucket.dataiotapp.com/fd2022e8-dcbe-45d9-993d-098d79ff2c6f/V/DJI_20231110112617_0013_V.JPG',
    'windspeed': 1.0
  }, {
    '_id': ObjectId('661f7a15e889b31d412eb630'),
    'url': 'https://bucket.dataiotapp.com/fd2022e8-dcbe-45d9-993d-098d79ff2c6f/T/DJI_20231110112634_0030_T.JPG',
    'colorbar': False,
    'colormap': 'inferno',
    'date': '11:26:34',
    'device': 'DJI-M3T',
    'device_id': '1581F5FJD231300C691B',
    'emissivity': 0.95,
    'irr': 855,
    'latitude': 13.489454972222221,
    'longitude': 100.85585669444444,
    'lower': 0.0,
    'object_distance': 22.0,
    'project': 'BBO',
    'reflected_apparent_temperature': 37.0,
    'relative_humidity': 55.0,
    'roi': [{
      'x': 348.1245789173299,
      'y': 310.78350360051525,
      'xmax': 386.44598481937015,
      'ymax': 377.28101402915445,
      'id': 1,
      'type': 'rectangle',
      'hotspot_type': 'single',
      'tag': 'STRING# 1-27-1-16',
      'pv_brand': 'None',
      'cell_size': 'None',
      'normal_temp': 85,
      'priority': 3,
      'maxTemperature': 98.05501556396484,
      'minTemperature': 30.5563907623291,
      'maxIndex': [369, 347],
      'minIndex': [381, 310],
      'location': '100.8558609168282,13.489455907002247'
    }],
    'save': False,
    'time': '2023:11:10',
    'upper': 0.0,
    'var': 'https://bucket.dataiotapp.com/fd2022e8-dcbe-45d9-993d-098d79ff2c6f/V/DJI_20231110112634_0030_V.JPG',
    'windspeed': 1.0
  }, {
    '_id': ObjectId('661f7b4ee889b31d4133580a'),
    'url': 'https://bucket.dataiotapp.com/fd2022e8-dcbe-45d9-993d-098d79ff2c6f/T/DJI_20231110112721_0077_T.JPG',
    'colorbar': False,
    'colormap': 'inferno',
    'date': '11:27:21',
    'device': 'DJI-M3T',
    'device_id': '1581F5FJD231300C691B',
    'emissivity': 0.95,
    'irr': 855,
    'latitude': 13.489360277777777,
    'longitude': 100.85600475,
    'lower': 0.0,
    'object_distance': 22.0,
    'project': 'BBO',
    'reflected_apparent_temperature': 37.0,
    'relative_humidity': 55.0,
    'roi': [{
      'x': 225.77310224214102,
      'y': 176.40311794264014,
      'xmax': 259.4774712885138,
      'ymax': 239.20632223635496,
      'id': 1,
      'type': 'rectangle',
      'hotspot_type': 'single',
      'tag': 'STRING# 1-26-10-8',
      'pv_brand': 'None',
      'cell_size': 'None',
      'normal_temp': 85,
      'priority': 3,
      'maxTemperature': 45.917076110839844,
      'minTemperature': 29.230188369750977,
      'maxIndex': [229, 180],
      'minIndex': [256, 176],
      'location': '100.8559734553787,13.489396504972701'
    }, {
      'x': 298.26058087612086,
      'y': 179.17384754383343,
      'xmax': 332.8883572936271,
      'ymax': 246.13314623933817,
      'id': 2,
      'type': 'rectangle',
      'hotspot_type': 'shading',
      'tag': 'STRING# 1-26-10-10',
      'pv_brand': 'None',
      'cell_size': 'None',
      'normal_temp': 85,
      'priority': 3,
      'maxTemperature': 43.41234588623047,
      'minTemperature': 27.289331436157227,
      'maxIndex': [312, 245],
      'minIndex': [331, 231],
      'location': '100.85599216797753,13.489395286192442'
    }, {
      'x': 294.1052477060201,
      'y': 247.9802993068004,
      'xmax': 327.8096167523929,
      'ymax': 315.4013862691707,
      'id': 3,
      'type': 'rectangle',
      'hotspot_type': 'shading',
      'tag': 'STRING# 1-26-10-20',
      'pv_brand': 'None',
      'cell_size': 'None',
      'normal_temp': 85,
      'priority': 3,
      'maxTemperature': 53.59123992919922,
      'minTemperature': 26.573266983032227,
      'maxIndex': [299, 305],
      'minIndex': [327, 299],
      'location': '100.8559912891874,13.489378774712266'
    }],
    'save': False,
    'time': '2023:11:10',
    'upper': 0.0,
    'var': 'https://bucket.dataiotapp.com/fd2022e8-dcbe-45d9-993d-098d79ff2c6f/V/DJI_20231110112721_0077_V.JPG',
    'windspeed': 1.0
  }, {
    '_id': ObjectId('661f7b7de889b31d4133f979'),
    'url': 'https://bucket.dataiotapp.com/fd2022e8-dcbe-45d9-993d-098d79ff2c6f/T/DJI_20231110112723_0079_T.JPG',
    'colorbar': False,
    'colormap': 'inferno',
    'date': '11:27:23',
    'device': 'DJI-M3T',
    'device_id': '1581F5FJD231300C691B',
    'emissivity': 0.95,
    'irr': 855,
    'latitude': 13.489360472222222,
    'longitude': 100.85592655555556,
    'lower': 0.0,
    'object_distance': 22.0,
    'project': 'BBO',
    'reflected_apparent_temperature': 37.0,
    'relative_humidity': 55.0,
    'roi': [{
      'x': 346.26471233653626,
      'y': 251.13257354225132,
      'xmax': 375.6447485347878,
      'ymax': 316.1892012286841,
      'id': 1,
      'type': 'rectangle',
      'hotspot_type': 'single',
      'tag': 'STRING#1-26-10-13',
      'pv_brand': 'None',
      'cell_size': 'None',
      'normal_temp': 85,
      'priority': 3,
      'maxTemperature': 52.96556854248047,
      'minTemperature': 31.270166397094727,
      'maxIndex': [349, 311],
      'minIndex': [346, 316],
      'location': '100.85592633291127,13.489378432995228'
    }],
    'save': False,
    'time': '2023:11:10',
    'upper': 0.0,
    'var': 'https://bucket.dataiotapp.com/fd2022e8-dcbe-45d9-993d-098d79ff2c6f/V/DJI_20231110112723_0079_V.JPG',
    'windspeed': 1.0
  }, {
    '_id': ObjectId('661f7ba8e889b31d41349cc8'),
    'url': 'https://bucket.dataiotapp.com/fd2022e8-dcbe-45d9-993d-098d79ff2c6f/T/DJI_20231110112726_0082_T.JPG',
    'colorbar': False,
    'colormap': 'inferno',
    'date': '11:27:26',
    'device': 'DJI-M3T',
    'device_id': '1581F5FJD231300C691B',
    'emissivity': 0.95,
    'irr': 855,
    'latitude': 13.489359944444443,
    'longitude': 100.85580916666666,
    'lower': 0.0,
    'object_distance': 22.0,
    'project': 'BBO',
    'reflected_apparent_temperature': 37.0,
    'relative_humidity': 55.0,
    'roi': [{
      'x': 331.0415425513601,
      'y': 174.09417660831238,
      'xmax': 367.5161337111334,
      'ymax': 241.05347530381712,
      'id': 1,
      'type': 'rectangle',
      'hotspot_type': 'single',
      'tag': 'STRING# 1-27-3-10',
      'pv_brand': 'None',
      'cell_size': 'None',
      'normal_temp': 85,
      'priority': 3,
      'maxTemperature': 64.0306625366211,
      'minTemperature': 32.899009704589844,
      'maxIndex': [354, 183],
      'minIndex': [366, 174],
      'location': '100.85580084631809,13.489395722078875'
    }],
    'save': False,
    'time': '2023:11:10',
    'upper': 0.0,
    'var': 'https://bucket.dataiotapp.com/fd2022e8-dcbe-45d9-993d-098d79ff2c6f/V/DJI_20231110112726_0082_V.JPG',
    'windspeed': 1.0
  }, {
    '_id': ObjectId('661f7c74e889b31d41378023'),
    'url': 'https://bucket.dataiotapp.com/fd2022e8-dcbe-45d9-993d-098d79ff2c6f/T/DJI_20231110112823_0139_T.JPG',
    'colorbar': False,
    'colormap': 'inferno',
    'date': '11:28:23',
    'device': 'DJI-M3T',
    'device_id': '1581F5FJD231300C691B',
    'emissivity': 0.95,
    'irr': 855,
    'latitude': 13.489312694444443,
    'longitude': 100.85590708333332,
    'lower': 0.0,
    'object_distance': 22.0,
    'project': 'BBO',
    'reflected_apparent_temperature': 37.0,
    'relative_humidity': 55.0,
    'roi': [{
      'x': 286.2562850513853,
      'y': 211.49902622442195,
      'xmax': 321.8074688400251,
      'ymax': 281.69084278798556,
      'id': 1,
      'type': 'rectangle',
      'hotspot_type': 'single',
      'tag': 'STRING# 1-27-5-18',
      'pv_brand': 'None',
      'cell_size': 'None',
      'normal_temp': 85,
      'priority': 1,
      'maxTemperature': 101.81282806396484,
      'minTemperature': 29.331933975219727,
      'maxIndex': [289, 215],
      'minIndex': [317, 211],
      'location': '100.85587687801454,13.489337913236865'
    }],
    'save': False,
    'time': '2023:11:10',
    'upper': 0.0,
    'var': 'https://bucket.dataiotapp.com/fd2022e8-dcbe-45d9-993d-098d79ff2c6f/V/DJI_20231110112823_0139_V.JPG',
    'windspeed': 1.0
  }, {
    '_id': ObjectId('661f7d16e889b31d4139febf'),
    'url': 'https://bucket.dataiotapp.com/fd2022e8-dcbe-45d9-993d-098d79ff2c6f/T/DJI_20231110112843_0159_T.JPG',
    'colorbar': False,
    'colormap': 'inferno',
    'date': '11:28:43',
    'device': 'DJI-M3T',
    'device_id': '1581F5FJD231300C691B',
    'emissivity': 0.95,
    'irr': 855,
    'latitude': 13.489265527777777,
    'longitude': 100.8557618611111,
    'lower': 0.0,
    'object_distance': 22.0,
    'project': 'BBO',
    'reflected_apparent_temperature': 37.0,
    'relative_humidity': 55.0,
    'roi': [{
      'x': 293.6435440204533,
      'y': 254.44533504291812,
      'xmax': 327.8096167523929,
      'ymax': 323.25178680588505,
      'id': 1,
      'type': 'rectangle',
      'hotspot_type': 'multiple',
      'tag': 'STRING# 1-27-7-4',
      'pv_brand': 'None',
      'cell_size': 'None',
      'normal_temp': 85,
      'priority': 3,
      'maxTemperature': 81.45262908935547,
      'minTemperature': 33.20427703857422,
      'maxIndex': [311, 286],
      'minIndex': [326, 254],
      'location': '100.85574394610275,13.489280811570145'
    }],
    'save': False,
    'time': '2023:11:10',
    'upper': 0.0,
    'var': 'https://bucket.dataiotapp.com/fd2022e8-dcbe-45d9-993d-098d79ff2c6f/V/DJI_20231110112843_0159_V.JPG',
    'windspeed': 1.0
  }, {
    '_id': ObjectId('661f7d9de889b31d413bf5fd'),
    'url': 'https://bucket.dataiotapp.com/fd2022e8-dcbe-45d9-993d-098d79ff2c6f/T/DJI_20231110112908_0184_T.JPG',
    'colorbar': False,
    'colormap': 'inferno',
    'date': '11:29:08',
    'device': 'DJI-M3T',
    'device_id': '1581F5FJD231300C691B',
    'emissivity': 0.95,
    'irr': 855,
    'latitude': 13.489265777777778,
    'longitude': 100.85478716666667,
    'lower': 0.0,
    'object_distance': 22.0,
    'project': 'BBO',
    'reflected_apparent_temperature': 37.0,
    'relative_humidity': 55.0,
    'roi': [{
      'x': 437.2333902317128,
      'y': 227.6616155647162,
      'xmax': 471.3994629636523,
      'ymax': 297.39164386141425,
      'id': 1,
      'type': 'rectangle',
      'hotspot_type': 'single',
      'tag': 'STRING# 1-29-5-5',
      'pv_brand': 'None',
      'cell_size': 'None',
      'normal_temp': 85,
      'priority': 3,
      'maxTemperature': 61.86302947998047,
      'minTemperature': 28.106653213500977,
      'maxIndex': [445, 249],
      'minIndex': [471, 227],
      'location': '100.85480004336543,13.489284467024616'
    }, {
      'x': 433.5397607471788,
      'y': 297.8534321282798,
      'xmax': 467.24412979355156,
      'ymax': 362.9655777563223,
      'id': 2,
      'type': 'rectangle',
      'hotspot_type': 'single',
      'tag': 'STRING# 1-29-10-5',
      'pv_brand': 'None',
      'cell_size': 'None',
      'normal_temp': 85,
      'priority': 3,
      'maxTemperature': 53.800682067871094,
      'minTemperature': 33.509422302246094,
      'maxIndex': [454, 328],
      'minIndex': [433, 362],
      'location': '100.85479935939868,13.48926480883894'
    }],
    'save': False,
    'time': '2023:11:10',
    'upper': 0.0,
    'var': 'https://bucket.dataiotapp.com/fd2022e8-dcbe-45d9-993d-098d79ff2c6f/V/DJI_20231110112908_0184_V.JPG',
    'windspeed': 1.0
  }, {
    '_id': ObjectId('661f9989e889b31d41a9ab00'),
    'url': 'https://bucket.dataiotapp.com/fd2022e8-dcbe-45d9-993d-098d79ff2c6f/T/DJI_20231110112936_0212_T.JPG',
    'colorbar': False,
    'colormap': 'inferno',
    'date': '11:29:36',
    'device': 'DJI-M3T',
    'device_id': '1581F5FJD231300C691B',
    'emissivity': 0.95,
    'irr': 855,
    'latitude': 13.489217638888888,
    'longitude': 100.85506738888888,
    'lower': 0.0,
    'object_distance': 22.0,
    'project': 'BBO',
    'reflected_apparent_temperature': 37.0,
    'relative_humidity': 55.0,
    'roi': [{
      'x': 227.4135101231213,
      'y': 337.7773407045674,
      'xmax': 261.2926177764727,
      'ymax': 401.2693220400124,
      'id': 1,
      'type': 'rectangle',
      'hotspot_type': 'single',
      'tag': 'STRING# 1-30-9-8',
      'pv_brand': 'None',
      'cell_size': 'None',
      'normal_temp': 85,
      'priority': 3,
      'maxTemperature': 51.615806579589844,
      'minTemperature': 29.8426456451416,
      'maxIndex': [245, 372],
      'minIndex': [227, 401],
      'location': '100.85501797364074,13.48920604709538'
    }],
    'save': False,
    'time': '2023:11:10',
    'upper': 0.0,
    'var': 'https://bucket.dataiotapp.com/fd2022e8-dcbe-45d9-993d-098d79ff2c6f/V/DJI_20231110112936_0212_V.JPG',
    'windspeed': 1.0
  }, {
    '_id': ObjectId('661f9a53e889b31d41ad5c4f'),
    'url': 'https://bucket.dataiotapp.com/fd2022e8-dcbe-45d9-993d-098d79ff2c6f/T/DJI_20231110112957_0233_T.JPG',
    'colorbar': False,
    'colormap': 'inferno',
    'date': '11:29:57',
    'device': 'DJI-M3T',
    'device_id': '1581F5FJD231300C691B',
    'emissivity': 0.95,
    'irr': 855,
    'latitude': 13.489217388888887,
    'longitude': 100.85589019444444,
    'lower': 0.0,
    'object_distance': 22.0,
    'project': 'BBO',
    'reflected_apparent_temperature': 37.0,
    'relative_humidity': 55.0,
    'roi': [{
      'x': 297.2891696581586,
      'y': 289.10015501405957,
      'xmax': 331.16827731151,
      'ymax': 358.94133448304905,
      'id': 1,
      'type': 'rectangle',
      'hotspot_type': 'multiple',
      'tag': 'STRING# 1-27-9-17',
      'pv_brand': 'None',
      'cell_size': 'None',
      'normal_temp': 85,
      'priority': 3,
      'maxTemperature': 61.218711853027344,
      'minTemperature': 33.20427703857422,
      'maxIndex': [304, 354],
      'minIndex': [331, 289],
      'location': '100.85586683643773,13.48921926354495'
    }, {
      'x': 373.9406507238661,
      'y': 292.48639401861664,
      'xmax': 333.2857215398444,
      'ymax': 360.21117410975796,
      'id': 2,
      'type': 'rectangle',
      'hotspot_type': 'multiple',
      'tag': 'STRING# 1-27-9-18',
      'pv_brand': 'None',
      'cell_size': 'None',
      'normal_temp': 85,
      'priority': 1,
      'maxTemperature': 111.24877166748047,
      'minTemperature': 36.65563201904297,
      'maxIndex': [336, 356],
      'minIndex': [371, 309],
      'location': '100.85587473900083,13.489218158109177'
    }, {
      'x': 404.8553364575493,
      'y': 362.75085336317574,
      'xmax': 437.8874664195669,
      'ymax': 422024 - 05 - 23 T08: 19: 35.613652724 Z 8.35923407646897,
      'id': 3,
      'type': 'rectangle',
      'hotspot_type': 'shading',
      'tag': 'STRING# 1-27-10-20',
      'pv_brand': 'None',
      'cell_size': 'None',
      'normal_temp': 85,
      'priority': 3,
      'maxTemperature': 59.39501190185547,
      'minTemperature': 30.046716690063477,
      'maxIndex': [409, 417],
      'minIndex': [437, 428],
      'location': '100.85589504285157,13.489201152481831'
    }],
    'save': False,
    'time': '2023:11:10',
    'upper': 0.0,
    'var': 'https://bucket.dataiotapp.com/fd2022e8-dcbe-45d9-993d-098d79ff2c6f/V/DJI_20231110112957_0233_V.JPG',
    'windspeed': 1.0
  }, {
    '_id': ObjectId('661f9aaee889b31d41aeefa7'),
    'url': 'https://bucket.dataiotapp.com/fd2022e8-dcbe-45d9-993d-098d79ff2c6f/T/DJI_20231110113015_0251_T.JPG',
    'colorbar': False,
    'colormap': 'inferno',
    'date': '11:30:15',
    'device': 'DJI-M3T',
    'device_id': '1581F5FJD231300C691B',
    'emissivity': 0.95,
    'irr': 855,
    'latitude': 13.489170305555554,
    'longitude': 100.85578730555555,
    'lower': 0.0,
    'object_distance': 22.0,
    'project': 'BBO',
    'reflected_apparent_temperature': 37.0,
    'relative_humidity': 55.0,
    'roi': [{
      'x': 336.2501434595127,
      'y': 337.3540608289978,
      'xmax': 369.7057622671972,
      'ymax': 404.6555610445694,
      'id': 1,
      'type': 'rectangle',
      'hotspot_type': 'single',
      'tag': 'STRING# 1-28-1-8',
      'pv_brand': 'None',
      'cell_size': 'None',
      'normal_temp': 85,
      'priority': 3,
      'maxTemperature': 83.84185028076172,
      'minTemperature': 34.22081756591797,
      'maxIndex': [353, 346],
      'minIndex': [368, 337],
      'location': '100.85578770762497,13.489159784810107'
    }],
    'save': False,
    'time': '2023:11:10',
    'upper': 0.0,
    'var': 'https://bucket.dataiotapp.com/fd2022e8-dcbe-45d9-993d-098d79ff2c6f/V/DJI_20231110113015_0251_V.JPG',
    'windspeed': 1.0
  }, {
    '_id': ObjectId('661f9af1e889b31d41b02288'),
    'url': 'https://bucket.dataiotapp.com/fd2022e8-dcbe-45d9-993d-098d79ff2c6f/T/DJI_20231110113021_0257_T.JPG',
    'colorbar': False,
    'colormap': 'inferno',
    'date': '11:30:21',
    'device': 'DJI-M3T',
    'device_id': '1581F5FJD231300C691B',
    'emissivity': 0.95,
    'irr': 855,
    'latitude': 13.489170305555554,
    'longitude': 100.85555152777778,
    'lower': 0.0,
    'object_distance': 22.0,
    'project': 'BBO',
    'reflected_apparent_temperature': 37.0,
    'relative_humidity': 55.0,
    'roi': [{
      'x': 413.32511337088715,
      'y': 337.7773407045674,
      'xmax': 446.3572433329048,
      'ymax': 405.5021207957088,
      'id': 1,
      'type': 'rectangle',
      'hotspot_type': 'single',
      'tag': 'STRING# 1-31-1-5',
      'pv_brand': 'None',
      'cell_size': 'None',
      'normal_temp': 85,
      'priority': 3,
      'maxTemperature': 68.18828582763672,
      'minTemperature': 32.899009704589844,
      'maxIndex': [431, 348],
      'minIndex': [444, 337],
      'location': '100.8555624059165,13.489159961832707'
    }],
    'save': False,
    'time': '2023:11:10',
    'upper': 0.0,
    'var': 'https://bucket.dataiotapp.com/fd2022e8-dcbe-45d9-993d-098d79ff2c6f/V/DJI_20231110113021_0257_V.JPG',
    'windspeed': 1.0
  }, {
    '_id': ObjectId('661f9b1ae889b31d41b0e3c6'),
    'url': 'https://bucket.dataiotapp.com/fd2022e8-dcbe-45d9-993d-098d79ff2c6f/T/DJI_20231110113022_0258_T.JPG',
    'colorbar': False,
    'colormap': 'inferno',
    'date': '11:30:22',
    'device': 'DJI-M3T',
    'device_id': '1581F5FJD231300C691B',
    'emissivity': 0.95,
    'irr': 855,
    'latitude': 13.489170249999999,
    'longitude': 100.85551299999999,
    'lower': 0.0,
    'object_distance': 22.0,
    'project': 'BBO',
    'reflected_apparent_temperature': 37.0,
    'relative_humidity': 55.0,
    'roi': [{
      'x': 327.356877700508,
      'y': 336.08422120228886,
      'xmax': 358.695052279858,
      'ymax': 400.4227622888731,
      'id': 1,
      'type': 'rectangle',
      'hotspot_type': 'single',
      'tag': 'STRING# 1-31-2-19',
      'pv_brand': 'None',
      'cell_size': 'None',
      'normal_temp': 85,
      'priority': 3,
      'maxTemperature': 59.18273162841797,
      'minTemperature': 38.375938415527344,
      'maxIndex': [333, 340],
      'minIndex': [358, 336],
      'location': '100.8555044006912,13.48916140905889'
    }],
    'save': False,
    'time': '2023:11:10',
    'upper': 0.0,
    'var': 'https://bucket.dataiotapp.com/fd2022e8-dcbe-45d9-993d-098d79ff2c6f/V/DJI_20231110113022_0258_V.JPG',
    'windspeed': 1.0
  }, {
    '_id': ObjectId('661f9b73e889b31d41b27aa1'),
    'url': 'https://bucket.dataiotapp.com/fd2022e8-dcbe-45d9-993d-098d79ff2c6f/T/DJI_20231110113040_0276_T.JPG',
    'colorbar': False,
    'colormap': 'inferno',
    'date': '11:30:40',
    'device': 'DJI-M3T',
    'device_id': '1581F5FJD231300C691B',
    'emissivity': 0.95,
    'irr': 855,
    'latitude': 13.489170111111111,
    'longitude': 100.85480819444444,
    'lower': 0.0,
    'object_distance': 22.0,
    'project': 'BBO',
    'reflected_apparent_temperature': 37.0,
    'relative_humidity': 55.0,
    'roi': [{
      'x': 385.3748495568723,
      'y': 304.3382305345664,
      'xmax': 416.7130241362223,
      'ymax': 370.36989112342917,
      'id': 1,
      'type': 'rectangle',
      'hotspot_type': 'single',
      'tag': 'STRING# 1-31-5-6',
      'pv_brand': 'None',
      'cell_size': 'None',
      'normal_temp': 85,
      'priority': 1,
      'maxTemperature': 100.4762191772461,
      'minTemperature': 29.740259170532227,
      'maxIndex': [402, 320],
      'minIndex': [412, 304],
      'location': '100.85480680750142,13.489162408718167'
    }],
    'save': False,
    'time': '2023:11:10',
    'upper': 0.0,
    'var': 'https://bucket.dataiotapp.com/fd2022e8-dcbe-45d9-993d-098d79ff2c6f/V/DJI_20231110113040_0276_V.JPG',
    'windspeed': 1.0
  }, {
    '_id': ObjectId('661f9babe889b31d41b38872'),
    'url': 'https://bucket.dataiotapp.com/fd2022e8-dcbe-45d9-993d-098d79ff2c6f/T/DJI_20231110113044_0280_T.JPG',
    'colorbar': False,
    'colormap': 'inferno',
    'date': '11:30:44',
    'device': 'DJI-M3T',
    'device_id': '1581F5FJD231300C691B',
    'emissivity': 0.95,
    'irr': 855,
    'latitude': 13.489170305555554,
    'longitude': 100.85465186111111,
    'lower': 0.0,
    'object_distance': 22.0,
    'project': 'BBO',
    'reflected_apparent_temperature': 37.0,
    'relative_humidity': 55.0,
    'roi': [{
      'x': 321.85152270683835,
      'y': 300.5287116544397,
      'xmax': 354.883652668856,
      'ymax': 366.5603722433025,
      'id': 1,
      'type': 'rectangle',
      'hotspot_type': 'single',
      'tag': 'STRING# 1-32-1-8',
      'pv_brand': 'None',
      'cell_size': 'None',
      'normal_temp': 85,
      'priority': 2,
      'maxTemperature': 89.2898178100586,
      'minTemperature': 30.5563907623291,
      'maxIndex': [322, 310],
      'minIndex': [353, 300],
      'location': '100.85463925289524,13.489167065660135'
    }],
    'save': False,
    'time': '2023:11:10',
    'upper': 0.0,
    'var': 'https://bucket.dataiotapp.com/fd2022e8-dcbe-45d9-993d-098d79ff2c6f/V/DJI_20231110113044_0280_V.JPG',
    'windspeed': 1.0
  }, {
    '_id': ObjectId('661f9bc9e889b31d41b41275'),
    'url': 'https://bucket.dataiotapp.com/fd2022e8-dcbe-45d9-993d-098d79ff2c6f/T/DJI_20231110113046_0282_T.JPG',
    'colorbar': False,
    'colormap': 'inferno',
    'date': '11:30:46',
    'device': 'DJI-M3T',
    'device_id': '1581F5FJD231300C691B',
    'emissivity': 0.95,
    'irr': 855,
    'latitude': 13.489170333333332,
    'longitude': 100.85457336111111,
    'lower': 0.0,
    'object_distance': 22.0,
    'project': 'BBO',
    'reflected_apparent_temperature': 37.0,
    'relative_humidity': 55.0,
    'roi': [{
      'x': 372.2466953411986,
      'y': 299.2588720277308,
      'xmax': 404.4318476118824,
      'ymax': 364.8672527410239,
      'id': 1,
      'type': 'rectangle',
      'hotspot_type': 'single',
      'tag': 'STRING# 1-32-1-1',
      'pv_brand': 'None',
      'cell_size': 'None',
      'normal_temp': 85,
      'priority': 3,
      'maxTemperature': 63.920310974121094,
      'minTemperature': 32.594017028808594,
      'maxIndex': [381, 346],
      'minIndex': [404, 299],
      'location': '100.85457232777964,13.48916639935655'
    }],
    'save': False,
    'time': '2023:11:10',
    'upper': 0.0,
    'var': 'https://bucket.dataiotapp.com/fd2022e8-dcbe-45d9-993d-098d79ff2c6f/V/DJI_20231110113045_0282_V.JPG',
    'windspeed': 1.0
  }, {
    '_id': ObjectId('662091aee889b31d413e8c41'),
    'url': 'https://bucket.dataiotapp.com/fd2022e8-dcbe-45d9-993d-098d79ff2c6f/T/DJI_20231110113111_0308_T.JPG',
    'colorbar': False,
    'colormap': 'inferno',
    'date': '11:31:11',
    'device': 'DJI-M3T',
    'device_id': '1581F5FJD231300C691B',
    'emissivity': 0.95,
    'irr': 855,
    'latitude': 13.48912286111111,
    'longitude': 100.85456808333333,
    'lower': 0.0,
    'object_distance': 22.0,
    'project': 'BBO',
    'reflected_apparent_temperature': 37.0,
    'relative_humidity': 55.0,
    'roi': [{
      'x': 379.5720045778489,
      'y': 351.0294341944361,
      'xmax': 411.2030049593363,
      'ymax': 415.06337493759696,
      'id': 1,
      'type': 'rectangle',
      'hotspot_type': 'single',
      'tag': 'STRING# 1-32-3-20',
      'pv_brand': 'None',
      'cell_size': 'None',
      'normal_temp': 85,
      'priority': 2,
      'maxTemperature': 95.80159759521484,
      'minTemperature': 35.74333953857422,
      'maxIndex': [381, 368],
      'minIndex': [411, 415],
      'location': '100.85456209551128,13.489109395929633'
    }],
    'save': False,
    'time': '2023:11:10',
    'upper': 0.0,
    'var': 'https://bucket.dataiotapp.com/fd2022e8-dcbe-45d9-993d-098d79ff2c6f/V/DJI_20231110113111_0308_V.JPG',
    'windspeed': 1.0
  }, {
    '_id': ObjectId('6620925be889b31d4141d224'),
    'url': 'https://bucket.dataiotapp.com/fd2022e8-dcbe-45d9-993d-098d79ff2c6f/T/DJI_20231110113202_0359_T.JPG',
    'colorbar': False,
    'colormap': 'inferno',
    'date': '11:32:02',
    'device': 'DJI-M3T',
    'device_id': '1581F5FJD231300C691B',
    'emissivity': 0.95,
    'irr': 855,
    'latitude': 13.489075138888888,
    'longitude': 100.85574380555555,
    'lower': 0.0,
    'object_distance': 22.0,
    'project': 'BBO',
    'reflected_apparent_temperature': 37.0,
    'relative_humidity': 55.0,
    'roi': [{
      'x': 308.59512567304785,
      'y': 272.33712147392515,
      'xmax': 344.855052939631,
      'ymax': 339.4570352649492,
      'id': 1,
      'type': 'rectangle',
      'hotspot_type': 'single',
      'tag': 'STRING# 1-28-2-13',
      'pv_brand': 'None',
      'cell_size': 'None',
      'normal_temp': 85,
      'priority': 1,
      'maxTemperature': 113.8170394897461,
      'minTemperature': 39.58788299560547,
      'maxIndex': [316, 319],
      'minIndex': [343, 324],
      'location': '100.85573250570236,13.489084229447865'
    }],
    'save': False,
    'time': '2023:11:10',
    'upper': 0.0,
    'var': 'https://bucket.dataiotapp.com/fd2022e8-dcbe-45d9-993d-098d79ff2c6f/V/DJI_20231110113202_0359_V.JPG',
    'windspeed': 1.0
  }, {
    '_id': ObjectId('66209386e889b31d4147429f'),
    'url': 'https://bucket.dataiotapp.com/fd2022e8-dcbe-45d9-993d-098d79ff2c6f/T/DJI_20231110113310_0427_T.JPG',
    'colorbar': False,
    'colormap': 'inferno',
    'date': '11:33:10',
    'device': 'DJI-M3T',
    'device_id': '1581F5FJD231300C691B',
    'emissivity': 0.95,
    'irr': 855,
    'latitude': 13.489027944444443,
    'longitude': 100.85441077777777,
    'lower': 0.0,
    'object_distance': 22.0,
    'project': 'BBO',
    'reflected_apparent_temperature': 37.0,
    'relative_humidity': 55.0,
    'roi': [{
      'x': 311.6810769297783,
      'y': 202.9027278970037,
      'xmax': 346.3980285679962,
      'ymax': 273.10861473589097,
      'id': 1,
      'type': 'rectangle',
      'hotspot_type': 'single',
      'tag': 'STRING# 1-32-7-1',
      'pv_brand': 'None',
      'cell_size': 'None',
      'normal_temp': 85,
      'priority': 1,
      'maxTemperature': 108.98839569091797,
      'minTemperature': 29.8426456451416,
      'maxIndex': [330, 225],
      'minIndex': [346, 202],
      'location': '100.85438734511975,13.4890516705781'
    }],
    'save': False,
    'time': '2023:11:10',
    'upper': 0.0,
    'var': 'https://bucket.dataiotapp.com/fd2022e8-dcbe-45d9-993d-098d79ff2c6f/V/DJI_20231110113310_0427_V.JPG',
    'windspeed': 1.0
  }, {
    '_id': ObjectId('6620944ee889b31d414ae1c2'),
    'url': 'https://bucket.dataiotapp.com/fd2022e8-dcbe-45d9-993d-098d79ff2c6f/T/DJI_20231110113402_0479_T.JPG',
    'colorbar': False,
    'colormap': 'inferno',
    'date': '11:34:02',
    'device': 'DJI-M3T',
    'device_id': '1581F5FJD231300C691B',
    'emissivity': 0.95,
    'irr': 855,
    'latitude': 13.488980472222222,
    'longitude': 100.85578888888888,
    'lower': 0.0,
    'object_distance': 22.0,
    'project': 'BBO',
    'reflected_apparent_temperature': 37.0,
    'relative_humidity': 55.0,
    'roi': [{
      'x': 382.65795583457935,
      'y': 286.22400018930944,
      'xmax': 415.83193184443195,
      'ymax': 359.5158600760598,
      'id': 1,
      'type': 'rectangle',
      'hotspot_type': 'single',
      'tag': 'STRING# 1-28-4-20',
      'pv_brand': 'None',
      'cell_size': 'None',
      'normal_temp': 85,
      'priority': 2,
      'maxTemperature': 95.89070892333984,
      'minTemperature': 29.8426456451416,
      'maxIndex': [405, 298],
      'minIndex': [415, 286],
      'location': '100.85579961510561,13.488982993840906'
    }],
    'save': False,
    'time': '2023:11:10',
    'upper': 0.0,
    'var': 'https://bucket.dataiotapp.com/fd2022e8-dcbe-45d9-993d-098d79ff2c6f/V/DJI_20231110113402_0479_V.JPG',
    'windspeed': 1.0
  }, {
    '_id': ObjectId('6620946ce889b31d414b6082'),
    'url': 'https://bucket.dataiotapp.com/fd2022e8-dcbe-45d9-993d-098d79ff2c6f/T/DJI_20231110113404_0481_T.JPG',
    'colorbar': False,
    'colormap': 'inferno',
    'date': '11:34:04',
    'device': 'DJI-M3T',
    'device_id': '1581F5FJD231300C691B',
    'emissivity': 0.95,
    'irr': 855,
    'latitude': 13.488979777777777,
    'longitude': 100.85571091666667,
    'lower': 0.0,
    'object_distance': 22.0,
    'project': 'BBO',
    'reflected_apparent_temperature': 37.0,
    'relative_humidity': 55.0,
    'roi': [{
      'x': 273.87817403482995,
      'y': 280.0520540935831,
      'xmax': 310.1381013014131,
      'ymax': 351.8009274564019,
      'id': 1,
      'type': 'rectangle',
      'hotspot_type': 'single',
      'tag': 'STRING# 1-35-1-19',
      'pv_brand': 'None',
      'cell_size': 'None',
      'normal_temp': 85,
      'priority': 1,
      'maxTemperature': 121.3247299194336,
      'minTemperature': 34.93163299560547,
      'maxIndex': [288, 324],
      'minIndex': [306, 280],
      'location': '100.85569229050621,13.488986285591622'
    }],
    'save': False,
    'time': '2023:11:10',
    'upper': 0.0,
    'var': 'https://bucket.dataiotapp.com/fd2022e8-dcbe-45d9-993d-098d79ff2c6f/V/DJI_20231110113404_0481_V.JPG',
    'windspeed': 1.0
  }, {
    '_id': ObjectId('662094b9e889b31d414cc96b'),
    'url': 'https://bucket.dataiotapp.com/fd2022e8-dcbe-45d9-993d-098d79ff2c6f/T/DJI_20231110113417_0494_T.JPG',
    'colorbar': False,
    'colormap': 'inferno',
    'date': '11:34:17',
    'device': 'DJI-M3T',
    'device_id': '1581F5FJD231300C691B',
    'emissivity': 0.95,
    'irr': 855,
    'latitude': 13.488980166666666,
    'longitude': 100.85520088888889,
    'lower': 0.0,
    'object_distance': 22.0,
    'project': 'BBO',
    'reflected_apparent_temperature': 37.0,
    'relative_humidity': 55.0,
    'roi': [{
      'x': 307.6899781586931,
      'y': 269.8703819014823,
      'xmax': 350.40942412006876,
      'ymax': 344.3127155773599,
      'id': 1,
      'type': 'rectangle',
      'hotspot_type': 'diode',
      'tag': 'STRING# 1-35-3-6',
      'pv_brand': 'None',
      'cell_size': 'None',
      'normal_temp': 85,
      'priority': 3,
      'maxTemperature': 60.03691864013672,
      'minTemperature': 29.230188369750977,
      'maxIndex': [325, 340],
      'minIndex': [349, 269],
      'location': '100.855190275304,13.488987656383502'
    }],
    'save': False,
    'time': '2023:11:10',
    'upper': 0.0,
    'var': 'https://bucket.dataiotapp.com/fd2022e8-dcbe-45d9-993d-098d79ff2c6f/V/DJI_20231110113417_0494_V.JPG',
    'windspeed': 1.0
  }, {
    '_id': ObjectId('66209505e889b31d414e3fd6'),
    'url': 'https://bucket.dataiotapp.com/fd2022e8-dcbe-45d9-993d-098d79ff2c6f/T/DJI_20231110113432_0509_T.JPG',
    'colorbar': False,
    'colormap': 'inferno',
    'date': '11:34:32',
    'device': 'DJI-M3T',
    'device_id': '1581F5FJD231300C691B',
    'emissivity': 0.95,
    'irr': 855,
    'latitude': 13.488980277777777,
    'longitude': 100.85461502777777,
    'lower': 0.0,
    'object_distance': 22.0,
    'project': 'BBO',
    'reflected_apparent_temperature': 37.0,
    'relative_humidity': 55.0,
    'roi': [{
      'x': 413.5174684018842,
      'y': 258.45024275854087,
      'xmax': 452.86334692519773,
      'ymax': 330.1991161213596,
      'id': 1,
      'type': 'rectangle',
      'hotspot_type': 'single',
      'tag': 'STRING# 2-4-5-7',
      'pv_brand': 'None',
      'cell_size': 'None',
      'normal_temp': 85,
      'priority': 1,
      'maxTemperature': 104.6789779663086,
      'minTemperature': 29.230188369750977,
      'maxIndex': [419, 266],
      'minIndex': [452, 258],
      'location': '100.85462632108265,13.4889907552306'
    }],
    'save': False,
    'time': '2023:11:10',
    'upper': 0.0,
    'var': 'https://bucket.dataiotapp.com/fd2022e8-dcbe-45d9-993d-098d79ff2c6f/V/DJI_20231110113432_0509_V.JPG',
    'windspeed': 1.0
  }, {
    '_id': ObjectId('66209cc2e889b31d4172bc0c'),
    'url': 'https://bucket.dataiotapp.com/fd2022e8-dcbe-45d9-993d-098d79ff2c6f/T/DJI_20231110113447_0524_T.JPG',
    'colorbar': False,
    'colormap': 'inferno',
    'date': '11:34:47',
    'device': 'DJI-M3T',
    'device_id': '1581F5FJD231300C691B',
    'emissivity': 0.95,
    'irr': 855,
    'latitude': 13.488980472222222,
    'longitude': 100.8540276111111,
    'lower': 0.0,
    'object_distance': 22.0,
    'project': 'BBO',
    'reflected_apparent_temperature': 37.0,
    'relative_humidity': 55.0,
    'roi': [{
      'x': 327.11083321343074,
      'y': 237.61992468546444,
      'xmax': 367.22819955092694,
      'ymax': 307.0543182623859,
      'id': 1,
      'type': 'rectangle',
      'hotspot_type': 'multiple',
      'tag': 'STRING# 2-4-2-3',
      'pv_brand': 'None',
      'cell_size': 'None',
      'normal_temp': 85,
      'priority': 3,
      'maxTemperature': 91.32500457763672,
      'minTemperature': 30.96416664123535,
      'maxIndex': [341, 254],
      'minIndex': [365, 237],
      'location': '100.85401732363466,13.488993971796678'
    }],
    'save': False,
    'time': '2023:11:10',
    'upper': 0.0,
    'var': 'https://bucket.dataiotapp.com/fd2022e8-dcbe-45d9-993d-098d79ff2c6f/V/DJI_20231110113447_0524_V.JPG',
    'windspeed': 1.0
  }, {
    '_id': ObjectId('66209cdce889b31d41732858'),
    'url': 'https://bucket.dataiotapp.com/fd2022e8-dcbe-45d9-993d-098d79ff2c6f/T/DJI_20231110113448_052024-05-23T08:19:35.613652724Z 25_T.JPG',
    'colorbar': False,
    'colormap': 'inferno',
    'date': '11:34:48',
    'device': 'DJI-M3T',
    'device_id': '1581F5FJD231300C691B',
    'emissivity': 0.95,
    'irr': 855,
    'latitude': 13.488980472222222,
    'longitude': 100.85398788888888,
    'lower': 0.0,
    'object_distance': 22.0,
    'project': 'BBO',
    'reflected_apparent_temperature': 37.0,
    'relative_humidity': 55.0,
    'roi': [{
      'x': 325.5678575850655,
      'y': 236.84843142349865,
      'xmax': 367.9996873651096,
      'ymax': 307.0543182623859,
      'id': 1,
      'type': 'rectangle',
      'hotspot_type': 'single',
      'tag': 'STRING# 2-4-1-19',
      'pv_brand': 'None',
      'cell_size': 'None',
      'normal_temp': 85,
      'priority': 3,
      'maxTemperature': 68.62981414794922,
      'minTemperature': 30.658655166625977,
      'maxIndex': [358, 298],
      'minIndex': [365, 236],
      'location': '100.85397602849591,13.488994013823662'
    }],
    'save': False,
    'time': '2023:11:10',
    'upper': 0.0,
    'var': 'https://bucket.dataiotapp.com/fd2022e8-dcbe-45d9-993d-098d79ff2c6f/V/DJI_20231110113448_0525_V.JPG',
    'windspeed': 1.0
  }, {
    '_id': ObjectId('66209d00e889b31d4173ddf6'),
    'url': 'https://bucket.dataiotapp.com/fd2022e8-dcbe-45d9-993d-098d79ff2c6f/T/DJI_20231110113451_0528_T.JPG',
    'colorbar': False,
    'colormap': 'inferno',
    'date': '11:34:51',
    'device': 'DJI-M3T',
    'device_id': '1581F5FJD231300C691B',
    'emissivity': 0.95,
    'irr': 855,
    'latitude': 13.488979944444443,
    'longitude': 100.85387047222221,
    'lower': 0.0,
    'object_distance': 22.0,
    'project': 'BBO',
    'reflected_apparent_temperature': 37.0,
    'relative_humidity': 55.0,
    'roi': [{
      'x': 266.30278022851616,
      'y': 234.91102862890793,
      'xmax': 304.29999826024584,
      'ymax': 305.13422807286565,
      'id': 1,
      'type': 'rectangle',
      'hotspot_type': 'single',
      'tag': 'STRING# 2-4-1-5',
      'pv_brand': 'None',
      'cell_size': 'None',
      'normal_temp': 85,
      'priority': 3,
      'maxTemperature': 56.63512420654297,
      'minTemperature': 30.3524112701416,
      'maxIndex': [278, 292],
      'minIndex': [304, 234],
      'location': '100.85384641616011,13.48899416229815'
    }],
    'save': False,
    'time': '2023:11:10',
    'upper': 0.0,
    'var': 'https://bucket.dataiotapp.com/fd2022e8-dcbe-45d9-993d-098d79ff2c6f/V/DJI_20231110113451_0528_V.JPG',
    'windspeed': 1.0
  }, {
    '_id': ObjectId('66209dd9e889b31d4177c2df'),
    'url': 'https://bucket.dataiotapp.com/fd2022e8-dcbe-45d9-993d-098d79ff2c6f/T/DJI_20231110113600_0597_T.JPG',
    'colorbar': False,
    'colormap': 'inferno',
    'date': '11:36:00',
    'device': 'DJI-M3T',
    'device_id': '1581F5FJD231300C691B',
    'emissivity': 0.95,
    'irr': 855,
    'latitude': 13.488933222222222,
    'longitude': 100.85593538888888,
    'lower': 0.0,
    'object_distance': 22.0,
    'project': 'BBO',
    'reflected_apparent_temperature': 37.0,
    'relative_humidity': 55.0,
    'roi': [{
      'x': 202.5474647646022,
      'y': 332.5085594804379,
      'xmax': 242.53818935471537,
      'ymax': 408.04712884549326,
      'id': 1,
      'type': 'rectangle',
      'hotspot_type': 'single',
      'tag': 'STRING# 1-28-5-20',
      'pv_brand': 'None',
      'cell_size': 'None',
      'normal_temp': 85,
      'priority': 1,
      'maxTemperature': 108.47393035888672,
      'minTemperature': 30.046716690063477,
      'maxIndex': [229, 345],
      'minIndex': [242, 333],
      'location': '100.85589055618433,13.488922459492775'
    }],
    'save': False,
    'time': '2023:11:10',
    'upper': 0.0,
    'var': 'https://bucket.dataiotapp.com/fd2022e8-dcbe-45d9-993d-098d79ff2c6f/V/DJI_20231110113600_0597_V.JPG',
    'windspeed': 1.0
  }, {
    '_id': ObjectId('66209e50e889b31d4179eae7'),
    'url': 'https://bucket.dataiotapp.com/fd2022e8-dcbe-45d9-993d-098d79ff2c6f/T/DJI_20231110113726_0025_T.JPG',
    'colorbar': False,
    'colormap': 'inferno',
    'date': '11:37:26',
    'device': 'DJI-M3T',
    'device_id': '1581F5FJD231300C691B',
    'emissivity': 0.95,
    'irr': 855,
    'latitude': 13.48888486111111,
    'longitude': 100.85466944444444,
    'lower': 0.0,
    'object_distance': 22.0,
    'project': 'BBO',
    'reflected_apparent_temperature': 37.0,
    'relative_humidity': 55.0,
    'roi': [{
      'x': 350.8464017862718,
      'y': 174.21082220807926,
      'xmax': 386.3937125330391,
      'ymax': 243.63965434507864,
      'id': 1,
      'type': 'rectangle',
      'hotspot_type': 'diode',
      'tag': 'STRING# 2-3-10-11',
      'pv_brand': 'None',
      'cell_size': 'None',
      'normal_temp': 85,
      'priority': 3,
      'maxTemperature': 57.58635711669922,
      'minTemperature': 40.29405975341797,
      'maxIndex': [375, 195],
      'minIndex': [385, 227],
      'location': '100.85466290917935,13.48891473338794'
    }],
    'save': False,
    'time': '2023:11:10',
    'upper': 0.0,
    'var': 'https://bucket.dataiotapp.com/fd2022e8-dcbe-45d9-993d-098d79ff2c6f/V/DJI_20231110113726_0025_V.JPG',
    'windspeed': 1.0
  }, {
    '_id': ObjectId('66209ebde889b31d417be686'),
    'url': 'https://bucket.dataiotapp.com/fd2022e8-dcbe-45d9-993d-098d79ff2c6f/T/DJI_20231110113734_0033_T.JPG',
    'colorbar': False,
    'colormap': 'inferno',
    'date': '11:37:34',
    'device': 'DJI-M3T',
    'device_id': '1581F5FJD231300C691B',
    'emissivity': 0.95,
    'irr': 855,
    'latitude': 13.488885333333332,
    'longitude': 100.85435658333333,
    'lower': 0.0,
    'object_distance': 22.0,
    'project': 'BBO',
    'reflected_apparent_temperature': 37.0,
    'relative_humidity': 55.0,
    'roi': [{
      'x': 264.19983184102665,
      'y': 90.34079298658395,
      'xmax': 302.5242762398851,
      'ymax': 159.21419446648738,
      'id': 1,
      'type': 'rectangle',
      'hotspot_type': 'single',
      'tag': 'STRING# 2-3-3-16',
      'pv_brand': 'None',
      'cell_size': 'None',
      'normal_temp': 85,
      'priority': 2,
      'maxTemperature': 86.7689437866211,
      'minTemperature': 32.899009704589844,
      'maxIndex': [289, 142],
      'minIndex': [301, 90],
      'location': '100.8543263312113,13.488930215612708'
    }],
    'save': False,
    'time': '2023:11:10',
    'upper': 0.0,
    'var': 'https://bucket.dataiotapp.com/fd2022e8-dcbe-45d9-993d-098d79ff2c6f/V/DJI_20231110113734_0033_V.JPG',
    'windspeed': 1.0
  }, {
    '_id': ObjectId('66209ec1e889b31d417bf908'),
    'url': 'https://bucket.dataiotapp.com/fd2022e8-dcbe-45d9-993d-098d79ff2c6f/T/DJI_20231110113735_0034_T.JPG',
    'colorbar': False,
    'colormap': 'inferno',
    'date': '11:37:35',
    'device': 'DJI-M3T',
    'device_id': '1581F5FJD231300C691B',
    'emissivity': 0.95,
    'irr': 855,
    'latitude': 13.488885166666666,
    'longitude': 100.85431725,
    'lower': 0.0,
    'object_distance': 22.0,
    'project': 'BBO',
    'reflected_apparent_temperature': 37.0,
    'relative_humidity': 55.0,
    'roi': [{
      'x': 271.5637105922821,
      'y': 161.24209175085088,
      'xmax': 310.90958911559574,
      'ymax': 234.53395163760126,
      'id': 1,
      'type': 'rectangle',
      'hotspot_type': 'single',
      'tag': 'STRING# 2-3-8-11',
      'pv_brand': 'None',
      'cell_size': 'None',
      'normal_temp': 85,
      'priority': 2,
      'maxTemperature': 95.98467254638672,
      'minTemperature': 38.27489471435547,
      'maxIndex': [290, 202],
      'minIndex': [307, 180],
      'location': '100.85427425607541,13.48891861378466'
    }],
    'save': False,
    'time': '2023:11:10',
    'upper': 0.0,
    'var': 'https://bucket.dataiotapp.com/fd2022e8-dcbe-45d9-993d-098d79ff2c6f/V/DJI_20231110113735_0034_V.JPG',
    'windspeed': 1.0
  }, {
    '_id': ObjectId('6620a079e889b31d4183ee23'),
    'url': 'https://bucket.dataiotapp.com/fd2022e8-dcbe-45d9-993d-098d79ff2c6f/T/DJI_20231110113842_0101_T.JPG',
    'colorbar': False,
    'colormap': 'inferno',
    'date': '11:38:42',
    'device': 'DJI-M3T',
    'device_id': '1581F5FJD231300C691B',
    'emissivity': 0.95,
    'irr': 855,
    'latitude': 13.488838083333333,
    'longitude': 100.8553418611111,
    'lower': 0.0,
    'object_distance': 22.0,
    'project': 'BBO',
    'reflected_apparent_temperature': 37.0,
    'relative_humidity': 55.0,
    'roi': [{
      'x': 326.3393453992481,
      'y': 157.3846254410219,
      'xmax': 368.7711751792922,
      'ymax': 234.53395163760126,
      'id': 1,
      'type': 'rectangle',
      'hotspot_type': 'single',
      'tag': 'STRING# 1-37-3-20',
      'pv_brand': 'None',
      'cell_size': 'None',
      'normal_temp': 85,
      'priority': 3,
      'maxTemperature': 60.78929901123047,
      'minTemperature': 32.39049530029297,
      'maxIndex': [342, 220],
      'minIndex': [368, 157],
      'location': '100.85532049773539,13.488868799976602'
    }],
    'save': False,
    'time': '2023:11:10',
    'upper': 0.0,
    'var': 'https://bucket.dataiotapp.com/fd2022e8-dcbe-45d9-993d-098d79ff2c6f/V/DJI_20231110113842_0101_V.JPG',
    'windspeed': 1.0
  }, {
    '_id': ObjectId('6620a09fe889b31d41849101'),
    'url': 'https://bucket.dataiotapp.com/fd2022e8-dcbe-45d9-993d-098d79ff2c6f/T/DJI_20231110113847_0106_T.JPG',
    'colorbar': False,
    'colormap': 'inferno',
    'date': '11:38:47',
    'device': 'DJI-M3T',
    'device_id': '1581F5FJD231300C691B',
    'emissivity': 0.95,
    'irr': 855,
    'latitude': 13.488838083333333,
    'longitude': 100.8555368611111,
    'lower': 0.0,
    'object_distance': 22.0,
    'project': 'BBO',
    'reflected_apparent_temperature': 37.0,
    'relative_humidity': 55.0,
    'roi': [{
      'x': 360.2848092232834,
      'y': 164.32806479871402,
      'xmax': 398.85919993241436,
      'ymax': 240.70589773332762,
      'id': 1,
      'type': 'rectangle',
      'hotspot_type': 'multiple',
      'tag': 'STRING# 1-37-1-1',
      'pv_brand': 'None',
      'cell_size': 'None',
      'normal_temp': 85,
      'priority': 3,
      'maxTemperature': 118.5473861694336,
      'minTemperature': 32.49205780029297,
      'maxIndex': [367, 176],
      'minIndex': [398, 164],
      'location': '100.85552385344512,13.488866599290159'
    }],
    'save': False,
    'time': '2023:11:10',
    'upper': 0.0,
    'var': 'https://bucket.dataiotapp.com/fd2022e8-dcbe-45d9-993d-098d79ff2c6f/V/DJI_20231110113847_0106_V.JPG',
    'windspeed': 1.0
  }, {
    '_id': ObjectId('6620a0cee889b31d4185712c'),
    'url': 'https://bucket.dataiotapp.com/fd2022e8-dcbe-45d9-993d-098d79ff2c6f/T/DJI_20231110113852_0111_T.JPG',
    'colorbar': False,
    'colormap': 'inferno',
    'date': '11:38:52',
    'device': 'DJI-M3T',
    'device_id': '1581F5FJD231300C691B',
    'emissivity': 0.95,
    'irr': 855,
    'latitude': 13.48883786111111,
    'longitude': 100.85573247222221,
    'lower': 0.0,
    'object_distance': 22.0,
    'project': 'BBO',
    'reflected_apparent_temperature': 37.0,
    'relative_humidity': 55.0,
    'roi': [{
      'x': 229.13188081223805,
      'y': 248.42083035298555,
      'xmax': 268.47775933555164,
      'ymax': 321.71269023973593,
      'id': 1,
      'type': 'rectangle',
      'hotspot_type': 'single',
      'tag': 'STRING# 1-37-6-19',
      'pv_brand': 'None',
      'cell_size': 'None',
      'normal_temp': 85,
      'priority': 2,
      'maxTemperature': 87.23900604248047,
      'minTemperature': 38.47698211669922,
      'maxIndex': [233, 290],
      'minIndex': [268, 269],
      'location': '100.85569149126403,13.488848166641525'
    }],
    'save': False,
    'time': '2023:11:10',
    'upper': 0.0,
    'var': 'https://bucket.dataiotapp.com/fd2022e8-dcbe-45d9-993d-098d79ff2c6f/V/DJI_20231110113852_0111_V.JPG',
    'windspeed': 1.0
  }, {
    '_id': ObjectId('6620a0eae889b31d4185e758'),
    'url': 'https://bucket.dataiotapp.com/fd2022e8-dcbe-45d9-993d-098d79ff2c6f/T/DJI_20231110113903_0122_T.JPG',
    'colorbar': False,
    'colormap': 'inferno',
    'date': '11:39:03',
    'device': 'DJI-M3T',
    'device_id': '1581F5FJD231300C691B',
    'emissivity': 0.95,
    'irr': 855,
    'latitude': 13.4887895,
    'longitude': 100.85592308333332,
    'lower': 0.0,
    'object_distance': 22.0,
    'project': 'BBO',
    'reflected_apparent_temperature': 37.0,
    'relative_humidity': 55.0,
    'roi': [{
      'x': 232.98931988315115,
      'y': 224.50453923204594,
      'xmax': 273.87817403482995,
      'ymax': 297.79639911879633,
      'id': 1,
      'type': 'rectangle',
      'hotspot_type': 'single',
      'tag': 'STRING# 1-28-9-20',
      'pv_brand': 'None',
      'cell_size': 'None',
      'normal_temp': 85,
      'priority': 1,
      'maxTemperature': 108.58248138427734,
      'minTemperature': 29.128442764282227,
      'maxIndex': [266, 233],
      'minIndex': [271, 281],
      'location': '100.85589284692739,13.488805916004985'
    }],
    'save': False,
    'time': '2023:11:10',
    'upper': 0.0,
    'var': 'https://bucket.dataiotapp.com/fd2022e8-dcbe-45d9-993d-098d79ff2c6f/V/DJI_20231110113903_0122_V.JPG',
    'windspeed': 1.0
  }, {
    '_id': ObjectId('6620a12ae889b31d41870f9b'),
    'url': 'https://bucket.dataiotapp.com/fd2022e8-dcbe-45d9-993d-098d79ff2c6f/T/DJI_20231110113905_0124_T.JPG',
    'colorbar': False,
    'colormap': 'inferno',
    'date': '11:39:05',
    'device': 'DJI-M3T',
    'device_id': '1581F5FJD231300C691B',
    'emissivity': 0.95,
    'irr': 855,
    'latitude': 13.488789916666667,
    'longitude': 100.85584108333333,
    'lower': 0.0,
    'object_distance': 22.0,
    'project': 'BBO',
    'reflected_apparent_temperature': 37.0,
    'relative_humidity': 55.0,
    'roi': [{
      'x': 365.6852239225617,
      'y': 303.9683452145227,
      'xmax': 405.0311024458754,
      'ymax': 373.4027387914441,
      'id': 1,
      'type': 'rectangle',
      'hotspot_type': 'single',
      'tag': 'STRING# 1-28-10-15',
      'pv_brand': 'None',
      'cell_size': 'None',
      'normal_temp': 85,
      'priority': 3,
      'maxTemperature': 74.87740325927734,
      'minTemperature': 40.49584197998047,
      'maxIndex': [368, 354],
      'minIndex': [405, 323],
      'location': '100.85584575755404,13.488787927388094'
    }],
    'save': False,
    'time': '2023:11:10',
    'upper': 0.0,
    'var': 'https://bucket.dataiotapp.com/fd2022e8-dcbe-45d9-993d-098d79ff2c6f/V/DJI_20231110113905_0124_V.JPG',
    'windspeed': 1.0
  }, {
    '_id': ObjectId('6620a174e889b31d41885dcb'),
    'url': 'https://bucket.dataiotapp.com/fd2022e8-dcbe-45d9-993d-098d79ff2c6f/T/DJI_20231110113907_0126_T.JPG',
    'colorbar': False,
    'colormap': 'inferno',
    'date': '11:39:07',
    'device': 'DJI-M3T',
    'device_id': '1581F5FJD231300C691B',
    'emissivity': 0.95,
    'irr': 855,
    'latitude': 13.488790083333333,
    'longitude': 100.8557668611111,
    'lower': 0.0,
    'object_distance': 22.0,
    'project': 'BBO',
    'reflected_apparent_temperature': 37.0,
    'relative_humidity': 55.0,
    'roi': [{
      'x': 387.2868827196751,
      'y': 224.50453923204594,
      'xmax': 425.86127342880604,
      'ymax': 299.3393856427279,
      'id': 1,
      'type': 'rectangle',
      'hotspot_type': 'single',
      'tag': 'STRING# 1-28-9-7',
      'pv_brand': 'None',
      'cell_size': 'None',
      'normal_temp': 85,
      'priority': 1,
      'maxTemperature': 120.91561126708984,
      'minTemperature': 35.43901824951172,
      'maxIndex': [409, 235],
      'minIndex': [424, 224],
      'location': '100.85577933050173,13.488807147573047'
    }, {
      'x': 343.3120773112658,
      'y': 300.1108789046937,
      'xmax': 383.42944364876195,
      'ymax': 374.1742320534099,
      'id': 2,
      'type': 'rectangle',
      'hotspot_type': 'single',
      'tag': 'STRING# 1-28-10-6',
      'pv_brand': 'None',
      'cell_size': 'None',
      'normal_temp': 85,
      'priority': 1,
      'maxTemperature': 125.54656219482422,
      'minTemperature': 37.364463806152344,
      'maxIndex': [370, 347],
      'minIndex': [379, 374],
      'location': '100.8557713074488,13.48878985918926'
    }],
    'save': False,
    'time': '2023:11:10',
    'upper': 0.0,
    'var': 'https://bucket.dataiotapp.com/fd2022e8-dcbe-45d9-993d-098d79ff2c6f/V/DJI_20231110113907_0126_V.JPG',
    'windspeed': 1.0
  }, {
    '_id': ObjectId('6620a1b5e889b31d4189806a'),
    'url': 'https://bucket.dataiotapp.com/fd2022e8-dcbe-45d9-993d-098d79ff2c6f/T/DJI_20231110113920_0139_T.JPG',
    'colorbar': False,
    'colormap': 'inferno',
    'date': '11:39:20',
    'device': 'DJI-M3T',
    'device_id': '1581F5FJD231300C691B',
    'emissivity': 0.95,
    'irr': 855,
    'latitude': 13.488790333333332,
    'longitude': 100.85525769444443,
    'lower': 0.0,
    'object_distance': 22.0,
    'project': 'BBO',
    'reflected_apparent_temperature': 37.0,
    'relative_humidity': 55.0,
    'roi': [{
      'x': 311.6810769297783,
      'y': 207.53168746879848,
      'xmax': 348.71249201054405,
      'ymax': 280.82354735554884,
      'id': 1,
      'type': 'rectangle',
      'hotspot_type': 'diode',
      'tag': 'STRING# 1-38-3-12',
      'pv_brand': 'None',
      'cell_size': 'None',
      'normal_temp': 85,
      'priority': 3,
      'maxTemperature': 60.68047332763672,
      'minTemperature': 42.006065368652344,
      'maxIndex': [315, 260],
      'minIndex': [348, 207],
      'location': '100.85524630160445,13.488809282420684'
    }],
    'save': False,
    'time': '2023:11:10',
    'upper': 0.0,
    'var': 'https://bucket.dataiotapp.com/fd2022e8-dcbe-45d9-993d-098d79ff2c6f/V/DJI_20231110113920_0139_V.JPG',
    'windspeed': 1.0
  }, {
    '_id': ObjectId('6620a1cee889b31d4189f6a9'),
    'url': 'https://bucket.dataiotapp.com/fd2022e8-dcbe-45d9-993d-098d79ff2c6f/T/DJI_20231110113930_0149_T.JPG',
    'colorbar': False,
    'colormap': 'inferno',
    'date': '11:39:30',
    'device': 'DJI-M3T',
    'device_id': '1581F5FJD231300C691B',
    'emissivity': 0.95,
    'irr': 855,
    'latitude': 13.488789805555555,
    'longitude': 100.85486625,
    'lower': 0.0,
    'object_distance': 22.0,
    'project': 'BBO',
    'reflected_apparent_temperature': 37.0,
    'relative_humidity': 55.0,
    'roi': [{
      'x': 243.01866146752516,
      'y': 264.6221888542672,
      'xmax': 280.0500765482909,
      'ymax': 337.9140487410176,
      'id': 1,
      'type': 'rectangle',
      'hotspot_type': 'single',
      'tag': 'STRING# 1-38-10-9',
      'pv_brand': 'None',
      'cell_size': 'None',
      'normal_temp': 85,
      'priority': 3,
      'maxTemperature': 79.4232406616211,
      'minTemperature': 39.18413543701172,
      'maxIndex': [263, 280],
      'minIndex': [280, 322],
      'location': '100.85484355599722,13.488794251503942'
    }],
    'save': False,
    'time': '2023:11:10',
    'upper': 0.0,
    'var': 'https://bucket.dataiotapp.com/fd2022e8-dcbe-45d9-993d-098d79ff2c6f/V/DJI_20231110113930_0149_V.JPG',
    'windspeed': 1.0
  }, {
    '_id': ObjectId('6620a237e889b31d418bfbce'),
    'url': 'https://bucket.dataiotapp.com/fd2022e8-dcbe-45d9-993d-098d79ff2c6f/T/DJI_20231110113934_0153_T.JPG',
    'colorbar': False,
    'colormap': 'inferno',
    'date': '11:39:34',
    'device': 'DJI-M3T',
    'device_id': '1581F5FJD231300C691B',
    'emissivity': 0.95,
    'irr': 855,
    'latitude': 13.488790499999999,
    'longitude': 100.85470963888888,
    'lower': 2024 - 05 - 23 T08: 19: 35.613652724 Z 0.0,
    'object_distance': 22.0,
    'project': 'BBO',
    'reflected_apparent_temperature': 37.0,
    'relative_humidity': 55.0,
    'roi': [{
      'x': 351.02695545309194,
      'y': 183.61539634785888,
      'xmax': 390.37283397640556,
      'ymax': 257.67874949657505,
      'id': 1,
      'type': 'rectangle',
      'hotspot_type': 'single',
      'tag': 'STRING# 1-1-5-15',
      'pv_brand': 'None',
      'cell_size': 'None',
      'normal_temp': 85,
      'priority': 3,
      'maxTemperature': 68.96215057373047,
      'minTemperature': 31.47393226623535,
      'maxIndex': [360, 212],
      'minIndex': [390, 183],
      'location': '100.85471046136315,13.48881199108456'
    }],
    'save': False,
    'time': '2023:11:10',
    'upper': 0.0,
    'var': 'https://bucket.dataiotapp.com/fd2022e8-dcbe-45d9-993d-098d79ff2c6f/V/DJI_20231110113934_0153_V.JPG',
    'windspeed': 1.0
  }, {
    '_id': ObjectId('6620a37ee889b31d41920eba'),
    'url': 'https://bucket.dataiotapp.com/fd2022e8-dcbe-45d9-993d-098d79ff2c6f/T/DJI_20231110114025_0204_T.JPG',
    'colorbar': False,
    'colormap': 'inferno',
    'date': '11:40:25',
    'device': 'DJI-M3T',
    'device_id': '1581F5FJD231300C691B',
    'emissivity': 0.95,
    'irr': 855,
    'latitude': 13.488742777777777,
    'longitude': 100.85426249999999,
    'lower': 0.0,
    'object_distance': 22.0,
    'project': 'BBO',
    'reflected_apparent_temperature': 37.0,
    'relative_humidity': 55.0,
    'roi': [{
      'x': 374.1715898785705,
      'y': 311.6832778341806,
      'xmax': 412.7459805877015,
      'ymax': 381.11767141110204,
      'id': 1,
      'type': 'rectangle',
      'hotspot_type': 'multiple',
      'tag': 'STRING# 2-8-8-8',
      'pv_brand': 'None',
      'cell_size': 'None',
      'normal_temp': 85,
      'priority': 3,
      'maxTemperature': 93.61968231201172,
      'minTemperature': 32.39049530029297,
      'maxIndex': [401, 335],
      'minIndex': [410, 381],
      'location': '100.85426364989236,13.488736199912278'
    }],
    'save': False,
    'time': '2023:11:10',
    'upper': 0.0,
    'var': 'https://bucket.dataiotapp.com/fd2022e8-dcbe-45d9-993d-098d79ff2c6f/V/DJI_20231110114025_0204_V.JPG',
    'windspeed': 1.0
  }, {
    '_id': ObjectId('6620a3f3e889b31d41941ce7'),
    'url': 'https://bucket.dataiotapp.com/fd2022e8-dcbe-45d9-993d-098d79ff2c6f/T/DJI_20231110114102_0241_T.JPG',
    'colorbar': False,
    'colormap': 'inferno',
    'date': '11:41:02',
    'device': 'DJI-M3T',
    'device_id': '1581F5FJD231300C691B',
    'emissivity': 0.95,
    'irr': 855,
    'latitude': 13.488742527777777,
    'longitude': 100.85571005555555,
    'lower': 0.0,
    'object_distance': 22.0,
    'project': 'BBO',
    'reflected_apparent_temperature': 37.0,
    'relative_humidity': 55.0,
    'roi': [{
      'x': 366.45671173674435,
      'y': 283.1380271414463,
      'xmax': 403.4881268175101,
      'ymax': 355.65839376623086,
      'id': 1,
      'type': 'rectangle',
      'hotspot_type': 'single',
      'tag': 'STRING# 2-17-5-20',
      'pv_brand': 'None',
      'cell_size': 'None',
      'normal_temp': 85,
      'priority': 1,
      'maxTemperature': 109.29717254638672,
      'minTemperature': 33.509422302246094,
      'maxIndex': [392, 298],
      'minIndex': [403, 340],
      'location': '100.85570096511962,13.48874848033201'
    }],
    'save': False,
    'time': '2023:11:10',
    'upper': 0.0,
    'var': 'https://bucket.dataiotapp.com/fd2022e8-dcbe-45d9-993d-098d79ff2c6f/V/DJI_20231110114102_0241_V.JPG',
    'windspeed': 1.0
  }]}